﻿{
	"classes": [
		{"type_name":"top10博物馆","type_id": "小灯塔10天玩转世界top10博物馆"},
		{"type_name":"界博物馆第二季","type_id": "小灯塔玩转世界博物馆第二季"},
		{"type_name":"探秘恐龙世界","type_id": "小灯塔带孩子探秘恐龙世界"},
		{"type_name":"奇趣生物大百科","type_id": "小灯塔奇趣生物大百科"},
		{"type_name":"动物世界","type_id": "小灯塔玩转奇妙的动物世界"},
		{"type_name":"植物启蒙","type_id": "小灯塔给孩子的植物启蒙课"},
		{"type_name":"物种百科","type_id": "小灯塔给孩子的物种百科"},
		{"type_name":"昆虫记","type_id": "小灯塔昆虫记"},
		{"type_name":"探秘故宫角落","type_id": "小灯塔探秘故宫角落"},
		{"type_name":"top10名校","type_id": "小灯塔10天游遍世界top10名校"},
		{"type_name":"top10名画","type_id": "小灯塔带孩子看懂世界top10名画"},
		{"type_name":"美食","type_id": "小灯塔舌尖上的美食"},
		{"type_name":"第一堂海洋课","type_id": "小灯塔给孩子的第一堂海洋课"},
		{"type_name":"海底世界","type_id": "小灯塔海洋科普课-穿越奇妙海底世界"},
		{"type_name":"地球生命史","type_id": "小灯塔地球生命史"},
		{"type_name":"探秘地球南北极","type_id": "小灯塔探秘地球南北极"},
		{"type_name":"世界十大名胜","type_id": "小灯塔探秘世界十大名胜"},
		{"type_name":"环球之旅","type_id": "小灯塔奇妙的环球之旅"},
		{"type_name":"华夏地理","type_id": "小灯塔探秘华夏地理"},
		{"type_name":"自然地理","type_id": "小灯塔自然地理大巡游"},
		{"type_name":"出发啦！ 敦煌","type_id": "小灯塔出发啦！ 敦煌"},
		{"type_name":"冲出亚马逊","type_id": "小灯塔冲出亚马逊"},
		{"type_name":"走进美国","type_id": "小灯塔走进美国"},
		{"type_name":" 非洲大冒险","type_id": "小灯塔 非洲大冒险"},
		{"type_name":"神奇的汉字","type_id": "小灯塔神奇的汉字故事"},
		{"type_name":"唐诗大世界","type_id": "小灯塔 100节国学动画穿越唐诗大世界"},
		{"type_name":"诗词大会","type_id": "小灯塔诗词大会"},
		{"type_name":"三字经","type_id": "小灯塔三字经"},
		{"type_name":"西游记","type_id": "小灯塔西游记精选故事"},
		{"type_name":"成语故事","type_id": "小灯塔讲给孩子的成语故事"},
		{"type_name":"中华故事","type_id": "小灯塔中华故事"},
		{"type_name":"山海经","type_id": "小灯塔山海经"},
		{"type_name":"三国动画","type_id": "小灯塔三国动画"},
		{"type_name":"春节习俗","type_id": "小灯塔春节习俗"},
		{"type_name":"少儿版三国演义","type_id": "小灯塔少儿版三国演义"},
		{"type_name":"十二生肖","type_id": "小灯塔十二生肖"},
		{"type_name":"中华上下五千年","type_id": "小灯塔中华上下五千年"},
		{"type_name":"怪兽数学","type_id": "小灯塔怪兽数学-给3-7岁孩子的数学启蒙"},
		{"type_name":"奇趣科学实验室","type_id": "小灯塔奇趣科学实验室"},
		{"type_name":"剑桥数学启蒙课","type_id": "小灯塔剑桥数学启蒙课"},
		{"type_name":"宇宙探秘之旅","type_id": "小灯塔十大主题宇宙探秘之旅"},
		{"type_name":"跟动物老师学发明","type_id": "小灯塔跟动物老师学发明"},
		{"type_name":"天才发明家","type_id": "小灯塔天才发明家"},
		{"type_name":"剑桥博士讲物理","type_id": "小灯塔剑桥博士讲物理"},
		{"type_name":"STEM奇妙科学课","type_id": "小灯塔STEM奇妙科学课"},
		{"type_name":"出发吧，月球！","type_id": "小灯塔出发吧，月球！"},
		{"type_name":"十大世界未解之谜","type_id": "小灯塔探秘十大世界未解之谜"},
		{"type_name":"神奇的气象魔法","type_id": "小灯塔神奇的气象魔法"},
		{"type_name":"了不起的新科技","type_id": "小灯塔了不起的新科技"},
		{"type_name":"安全教育课","type_id": "小灯塔安全教育课"},
		{"type_name":"影响十万少年的人际沟通课","type_id": "小灯塔影响十万少年的人际沟通课"},
		{"type_name":"影响十万少年的人际沟通课2","type_id": "小灯塔影响十万少年的人际沟通课—进阶版"},
		{"type_name":"跟着棋圣学围棋","type_id": "小灯塔跟着棋圣学围棋"},
		{"type_name":"财商启蒙课","type_id": "小灯塔财商启蒙课"},
		{"type_name":"人体奥秘","type_id": "小灯塔人体奥秘"},
		{"type_name":"给男孩的性教育课","type_id": "小灯塔给男孩的性教育课"},
		{"type_name":"给女孩的性教育课","type_id": "小灯塔给女孩的性教育课"},
		{"type_name":"讲给孩子的人类简史","type_id": "小灯塔讲给孩子的人类简史"},
		{"type_name":"讲给孩子的希腊神话故事","type_id": "小灯塔讲给孩子的希腊神话故事"}
	]
}